[
  {
    "outputFileName": "Content/css/style-dev.min.css",
    "inputFiles": [
      "Content/css/style-dev.css"
    ]
  },
  {
    "outputFileName": "Content/css/bootstrap-alertity.min.css",
    "inputFiles": [
      "Content/css/bootstrap-alertity.css"
    ]
  },
  {
    "outputFileName": "Content/css/alertify/alertify.min.css",
    "inputFiles": [
      "Content/css/alertify/alertify.css"
    ]
  },
  {
    "outputFileName": "Content/css/alertify/alertify.min.js",
    "inputFiles": [
      "Content/css/alertify/alertify.js"
    ]
  },
  {
    "outputFileName": "Scripts/common/common.min.js",
    "inputFiles": [
      "Scripts/common/common.js"
    ]
  },
  {
    "outputFileName": "Scripts/common/masterdata.min.js",
    "inputFiles": [
      "Scripts/common/masterdata.js"
    ]
  }
]
